<?xml version="1.0" encoding="UTF-8"?>
<model ref="r:9624c27c-545a-4dda-adf8-6882c135443c(jetbrains.mps.grammarLanguage.sandbox.sandbox)" doNotGenerate="true">
  <persistence version="9" />
  <languages>
    <use id="89a8aaa6-0c50-49f2-a5c2-b956fa8e5588" name="jetbrains.mps.samples.grammarLanguage" version="0" />
  </languages>
  <imports />
  <registry>
    <language id="89a8aaa6-0c50-49f2-a5c2-b956fa8e5588" name="jetbrains.mps.samples.grammarLanguage">
      <concept id="4027599522494236461" name="jetbrains.mps.samples.grammarLanguage.structure.AdditionalRulesTable" flags="ng" index="4aqX0">
        <child id="4027599522494236462" name="rules" index="4aqX3" />
      </concept>
      <concept id="4027599522493988161" name="jetbrains.mps.samples.grammarLanguage.structure.Transform" flags="ng" index="4bpkG">
        <property id="8820993008189517514" name="side" index="2TflyH" />
        <child id="8820993008190296907" name="fromPattern" index="2T2mkG" />
        <child id="8820993008192835168" name="toPattern" index="2TSVw7" />
        <child id="8820993008192831273" name="symbol" index="2TSW_e" />
      </concept>
      <concept id="4027599522493988263" name="jetbrains.mps.samples.grammarLanguage.structure.TransformationsTable" flags="ng" index="4bpna">
        <child id="4027599522493988266" name="transformations" index="4bpn7" />
      </concept>
      <concept id="8820993008190296935" name="jetbrains.mps.samples.grammarLanguage.structure.TransformPatternAny" flags="ng" index="2T2mk0" />
      <concept id="8820993008190296923" name="jetbrains.mps.samples.grammarLanguage.structure.TransformPatternRule" flags="ng" index="2T2mkW">
        <reference id="8820993008190296930" name="rule" index="2T2mk5" />
        <child id="8820993008190296932" name="childPatterns" index="2T2mk3" />
      </concept>
      <concept id="5178860313581034444" name="jetbrains.mps.samples.grammarLanguage.structure.RulePath" flags="ng" index="1NwDB8">
        <child id="5178860313581034448" name="rules" index="1NwDBk" />
      </concept>
      <concept id="5178860313581034445" name="jetbrains.mps.samples.grammarLanguage.structure.RuleReference" flags="ng" index="1NwDB9">
        <reference id="5178860313581034446" name="declaration" index="1NwDBa" />
      </concept>
      <concept id="5178860313581034450" name="jetbrains.mps.samples.grammarLanguage.structure.SymbolWithRules" flags="ng" index="1NwDBm">
        <reference id="8820993008197958415" name="symbol" index="2TJoPC" />
        <child id="5178860313581034451" name="paths" index="1NwDBn" />
      </concept>
      <concept id="5178860313579194991" name="jetbrains.mps.samples.grammarLanguage.structure.LR0Table" flags="ng" index="1NBCxF">
        <child id="5178860313579194993" name="items" index="1NBCxP" />
      </concept>
      <concept id="5178860313579194995" name="jetbrains.mps.samples.grammarLanguage.structure.RuleCursor" flags="ng" index="1NBCxR" />
      <concept id="5178860313576899206" name="jetbrains.mps.samples.grammarLanguage.structure.Grammar" flags="ng" index="1NKo22">
        <child id="5178860313576899293" name="terminals" index="1NKo3p" />
        <child id="5178860313576899295" name="nonterminals" index="1NKo3r" />
        <child id="5178860313576899389" name="rules" index="1NKo4T" />
        <child id="5178860313577608787" name="derivedInfo" index="1NX_hn" />
      </concept>
      <concept id="5178860313576899207" name="jetbrains.mps.samples.grammarLanguage.structure.GrammarRule" flags="ng" index="1NKo23">
        <child id="5178860313576899220" name="rightHandSide" index="1NKo2g" />
        <child id="5178860313576899218" name="leftHandSide" index="1NKo2m" />
      </concept>
      <concept id="5178860313576899212" name="jetbrains.mps.samples.grammarLanguage.structure.TerminalReference" flags="ng" index="1NKo28">
        <reference id="5178860313576899213" name="declaration" index="1NKo29" />
      </concept>
      <concept id="5178860313576899215" name="jetbrains.mps.samples.grammarLanguage.structure.NonterminalReference" flags="ng" index="1NKo2b">
        <reference id="5178860313576899216" name="declaration" index="1NKo2k" />
      </concept>
      <concept id="5178860313576899208" name="jetbrains.mps.samples.grammarLanguage.structure.TerminalDeclaration" flags="ng" index="1NKo2c" />
      <concept id="5178860313576899209" name="jetbrains.mps.samples.grammarLanguage.structure.NonterminalDeclaration" flags="ng" index="1NKo2d" />
      <concept id="5178860313576899217" name="jetbrains.mps.samples.grammarLanguage.structure.SymbolReference" flags="ng" index="1NKo2l" />
      <concept id="5178860313577573431" name="jetbrains.mps.samples.grammarLanguage.structure.LL1Table" flags="ng" index="1NXWSN">
        <child id="5178860313577573448" name="rows" index="1NXWTc" />
      </concept>
      <concept id="5178860313577573432" name="jetbrains.mps.samples.grammarLanguage.structure.LL1Row" flags="ng" index="1NXWSW">
        <child id="5178860313577573433" name="symbol" index="1NXWSX" />
        <child id="5178860313577573435" name="firstSymbol" index="1NXWSZ" />
      </concept>
      <concept id="5178860313577077535" name="jetbrains.mps.samples.grammarLanguage.structure.GrammarExamples" flags="ng" index="1NZz$r">
        <reference id="5178860313577080163" name="grammar" index="1NZ$tB" />
        <child id="5178860313577080094" name="lines" index="1NZ$sq" />
      </concept>
      <concept id="5178860313577077542" name="jetbrains.mps.samples.grammarLanguage.structure.TerminalInstance" flags="ng" index="1NZz$y">
        <reference id="5178860313577077543" name="symbol" index="1NZz$z" />
      </concept>
      <concept id="5178860313577077536" name="jetbrains.mps.samples.grammarLanguage.structure.ExampleLine" flags="ng" index="1NZz$$">
        <child id="5178860313577077537" name="leftHandSide" index="1NZz$_" />
        <child id="5178860313577077539" name="rightHandSide" index="1NZz$B" />
      </concept>
      <concept id="5178860313577077545" name="jetbrains.mps.samples.grammarLanguage.structure.NonterminalInstance" flags="ng" index="1NZz$H">
        <reference id="5178860313577077546" name="rule" index="1NZz$I" />
        <child id="5178860313577077555" name="children" index="1NZz$R" />
      </concept>
    </language>
    <language id="ceab5195-25ea-4f22-9b92-103b95ca8c0c" name="jetbrains.mps.lang.core">
      <concept id="1133920641626" name="jetbrains.mps.lang.core.structure.BaseConcept" flags="ng" index="2VYdi">
        <child id="5169995583184591170" name="smodelAttribute" index="lGtFl" />
      </concept>
      <concept id="1169194658468" name="jetbrains.mps.lang.core.structure.INamedConcept" flags="ng" index="TrEIO">
        <property id="1169194664001" name="name" index="TrG5h" />
      </concept>
      <concept id="709746936026466394" name="jetbrains.mps.lang.core.structure.ChildAttribute" flags="ng" index="3VBwX9">
        <property id="709746936026609031" name="linkId" index="3V$3ak" />
        <property id="709746936026609029" name="role_DebugInfo" index="3V$3am" />
      </concept>
    </language>
  </registry>
  <node concept="1NKo22" id="4vv0wgO7LYu">
    <property role="TrG5h" value="Grammar1" />
    <node concept="4aqX0" id="3v$U6ONNQap" role="1NX_hn">
      <node concept="1NKo23" id="3v$U6ONMnLC" role="4aqX3">
        <property role="TrG5h" value="plusIncompl1" />
        <node concept="1NKo2b" id="3v$U6ONMnLD" role="1NKo2m">
          <ref role="1NKo2k" node="4vv0wgO8frv" resolve="ExprSum" />
        </node>
        <node concept="1NKo2b" id="3v$U6ONMnLE" role="1NKo2g">
          <ref role="1NKo2k" node="4vv0wgO8frv" resolve="ExprSum" />
        </node>
        <node concept="1NKo28" id="3v$U6ONMnLF" role="1NKo2g">
          <ref role="1NKo29" node="4vv0wgO8frF" resolve="+" />
        </node>
      </node>
      <node concept="1NKo23" id="3v$U6ONMnMl" role="4aqX3">
        <property role="TrG5h" value="plusIncompl2" />
        <node concept="1NKo2b" id="3v$U6ONMnMm" role="1NKo2m">
          <ref role="1NKo2k" node="4vv0wgO8frv" resolve="ExprSum" />
        </node>
        <node concept="1NKo28" id="3v$U6ONMnMo" role="1NKo2g">
          <ref role="1NKo29" node="4vv0wgO8frF" resolve="+" />
        </node>
        <node concept="1NKo2b" id="3v$U6ONMnN6" role="1NKo2g">
          <ref role="1NKo2k" node="4vv0wgO8fsd" resolve="ExprProd" />
        </node>
      </node>
      <node concept="1NKo23" id="3v$U6ONMnO9" role="4aqX3">
        <property role="TrG5h" value="plusIncompl3" />
        <node concept="1NKo2b" id="3v$U6ONMnOa" role="1NKo2m">
          <ref role="1NKo2k" node="4vv0wgO8frv" resolve="ExprSum" />
        </node>
        <node concept="1NKo28" id="3v$U6ONMnOZ" role="1NKo2g">
          <ref role="1NKo29" node="4vv0wgO8frF" resolve="+" />
        </node>
      </node>
      <node concept="1NKo23" id="3v$U6ONOdUw" role="4aqX3">
        <property role="TrG5h" value="prodIncompl1" />
        <node concept="1NKo2b" id="3v$U6ONOdUx" role="1NKo2m">
          <ref role="1NKo2k" node="4vv0wgO8fsd" resolve="ExprProd" />
        </node>
        <node concept="1NKo2b" id="3v$U6ONOdUy" role="1NKo2g">
          <ref role="1NKo2k" node="4vv0wgO8fsd" resolve="ExprProd" />
        </node>
        <node concept="1NKo28" id="3v$U6ONOdUz" role="1NKo2g">
          <ref role="1NKo29" node="4vv0wgO8frH" resolve="*" />
        </node>
      </node>
      <node concept="1NKo23" id="3v$U6ONOdXX" role="4aqX3">
        <property role="TrG5h" value="prodIncompl2" />
        <node concept="1NKo2b" id="3v$U6ONOdXY" role="1NKo2m">
          <ref role="1NKo2k" node="4vv0wgO8fsd" resolve="ExprProd" />
        </node>
        <node concept="1NKo28" id="3v$U6ONOdY0" role="1NKo2g">
          <ref role="1NKo29" node="4vv0wgO8frH" resolve="*" />
        </node>
        <node concept="1NKo2b" id="3v$U6ONOdY1" role="1NKo2g">
          <ref role="1NKo2k" node="4vv0wgO8fsx" resolve="ExprAtom" />
        </node>
      </node>
      <node concept="1NKo23" id="3v$U6ONOdZ4" role="4aqX3">
        <property role="TrG5h" value="prodIncompl3" />
        <node concept="1NKo2b" id="3v$U6ONOdZ5" role="1NKo2m">
          <ref role="1NKo2k" node="4vv0wgO8fsd" resolve="ExprProd" />
        </node>
        <node concept="1NKo28" id="3v$U6ONOdZ7" role="1NKo2g">
          <ref role="1NKo29" node="4vv0wgO8frH" resolve="*" />
        </node>
      </node>
    </node>
    <node concept="4bpna" id="3v$U6ONMINF" role="1NX_hn">
      <property role="TrG5h" value="basic transforms" />
      <node concept="4bpkG" id="3v$U6ONMIPZ" role="4bpn7">
        <property role="2TflyH" value="30NnNOohrQL/RIGHT" />
        <node concept="2T2mk0" id="7DEtAv3pa0H" role="2T2mkG" />
        <node concept="1NKo2b" id="7DEtAv3zxAn" role="2TSW_e">
          <ref role="1NKo2k" node="4vv0wgO8frv" resolve="ExprSum" />
        </node>
        <node concept="2T2mkW" id="7DEtAv3zxAJ" role="2TSVw7">
          <ref role="2T2mk5" node="3v$U6ONMnLC" resolve="plusIncompl1" />
          <node concept="2T2mk0" id="7DEtAv3zxAR" role="2T2mk3" />
          <node concept="2T2mk0" id="7DEtAv3zxAU" role="2T2mk3" />
        </node>
      </node>
      <node concept="4bpkG" id="3v$U6ONOr4$" role="4bpn7">
        <property role="2TflyH" value="1A4kJjlVmVt/LEFT" />
        <node concept="2T2mkW" id="7DEtAv3tec6" role="2T2mkG">
          <ref role="2T2mk5" node="4vv0wgO8fsJ" resolve="skipPlus" />
          <node concept="2T2mk0" id="7DEtAv3tecc" role="2T2mk3" />
        </node>
        <node concept="1NKo2b" id="7DEtAv3zxAp" role="2TSW_e">
          <ref role="1NKo2k" node="4vv0wgO8frv" resolve="ExprSum" />
        </node>
        <node concept="2T2mkW" id="7DEtAv3zxAX" role="2TSVw7">
          <ref role="2T2mk5" node="3v$U6ONMnMl" resolve="plusIncompl2" />
          <node concept="2T2mk0" id="7DEtAv3zxB4" role="2T2mk3" />
          <node concept="2T2mk0" id="7DEtAv3zxB1" role="2T2mk3" />
        </node>
      </node>
      <node concept="4bpkG" id="3v$U6ONNkgf" role="4bpn7">
        <property role="2TflyH" value="30NnNOohrQL/RIGHT" />
        <node concept="2T2mkW" id="7DEtAv3pa0L" role="2T2mkG">
          <ref role="2T2mk5" node="3v$U6ONMnLC" resolve="plusIncompl1" />
          <node concept="2T2mk0" id="7DEtAv3paX_" role="2T2mk3" />
          <node concept="2T2mk0" id="7DEtAv3qhpF" role="2T2mk3" />
        </node>
        <node concept="1NKo2b" id="7DEtAv3zxAr" role="2TSW_e">
          <ref role="1NKo2k" node="4vv0wgO8frv" resolve="ExprSum" />
        </node>
        <node concept="2T2mkW" id="7DEtAv3zxB9" role="2TSVw7">
          <ref role="2T2mk5" node="4vv0wgO8biz" resolve="plus" />
          <node concept="2T2mk0" id="7DEtAv3zxBh" role="2T2mk3" />
          <node concept="2T2mk0" id="7DEtAv3zxBk" role="2T2mk3" />
          <node concept="2T2mk0" id="7DEtAv3zxBn" role="2T2mk3" />
        </node>
      </node>
      <node concept="4bpkG" id="3v$U6ONNkhN" role="4bpn7">
        <property role="2TflyH" value="1A4kJjlVmVt/LEFT" />
        <node concept="2T2mkW" id="7DEtAv3qhpI" role="2T2mkG">
          <ref role="2T2mk5" node="3v$U6ONMnMl" resolve="plusIncompl2" />
          <node concept="2T2mk0" id="7DEtAv3qhpM" role="2T2mk3" />
          <node concept="2T2mk0" id="7DEtAv3qhpP" role="2T2mk3" />
        </node>
        <node concept="1NKo2b" id="7DEtAv3zxAt" role="2TSW_e">
          <ref role="1NKo2k" node="4vv0wgO8frv" resolve="ExprSum" />
        </node>
        <node concept="2T2mkW" id="7DEtAv3zxBr" role="2TSVw7">
          <ref role="2T2mk5" node="4vv0wgO8biz" resolve="plus" />
          <node concept="2T2mk0" id="7DEtAv3zxBv" role="2T2mk3" />
          <node concept="2T2mk0" id="7DEtAv3zxBy" role="2T2mk3" />
          <node concept="2T2mk0" id="7DEtAv3zxB_" role="2T2mk3" />
        </node>
      </node>
      <node concept="4bpkG" id="3v$U6ONNkiq" role="4bpn7">
        <property role="2TflyH" value="1A4kJjlVmVt/LEFT" />
        <node concept="2T2mkW" id="7DEtAv3qhpS" role="2T2mkG">
          <ref role="2T2mk5" node="3v$U6ONMnO9" resolve="plusIncompl3" />
          <node concept="2T2mk0" id="7DEtAv3qhpW" role="2T2mk3" />
        </node>
        <node concept="1NKo2b" id="7DEtAv3zxAv" role="2TSW_e">
          <ref role="1NKo2k" node="4vv0wgO8frv" resolve="ExprSum" />
        </node>
        <node concept="2T2mkW" id="7DEtAv3zxBD" role="2TSVw7">
          <ref role="2T2mk5" node="3v$U6ONMnLC" resolve="plusIncompl1" />
          <node concept="2T2mk0" id="7DEtAv3zxBH" role="2T2mk3" />
          <node concept="2T2mk0" id="7DEtAv3zxBK" role="2T2mk3" />
        </node>
      </node>
      <node concept="4bpkG" id="3v$U6ONNkiM" role="4bpn7">
        <property role="2TflyH" value="30NnNOohrQL/RIGHT" />
        <node concept="2T2mkW" id="7DEtAv3qhq9" role="2T2mkG">
          <ref role="2T2mk5" node="3v$U6ONMnO9" resolve="plusIncompl3" />
          <node concept="2T2mk0" id="7DEtAv3qhqd" role="2T2mk3" />
        </node>
        <node concept="1NKo2b" id="7DEtAv3zxAx" role="2TSW_e">
          <ref role="1NKo2k" node="4vv0wgO8frv" resolve="ExprSum" />
        </node>
        <node concept="2T2mkW" id="7DEtAv3zxBN" role="2TSVw7">
          <ref role="2T2mk5" node="3v$U6ONMnMl" resolve="plusIncompl2" />
          <node concept="2T2mk0" id="7DEtAv3zxBR" role="2T2mk3" />
          <node concept="2T2mk0" id="7DEtAv3zxBU" role="2T2mk3" />
        </node>
      </node>
      <node concept="4bpkG" id="3v$U6ONQatt" role="4bpn7">
        <property role="2TflyH" value="30NnNOohrQL/RIGHT" />
        <node concept="2T2mk0" id="7DEtAv3qhqg" role="2T2mkG" />
        <node concept="1NKo2b" id="7DEtAv3zxAz" role="2TSW_e">
          <ref role="1NKo2k" node="4vv0wgO8fsd" resolve="ExprProd" />
        </node>
        <node concept="2T2mkW" id="7DEtAv3zxBX" role="2TSVw7">
          <ref role="2T2mk5" node="3v$U6ONOdUw" resolve="prodIncompl1" />
          <node concept="2T2mk0" id="7DEtAv3zxC1" role="2T2mk3" />
          <node concept="2T2mk0" id="7DEtAv3zxC4" role="2T2mk3" />
        </node>
      </node>
      <node concept="4bpkG" id="3v$U6ONQatw" role="4bpn7">
        <property role="2TflyH" value="1A4kJjlVmVt/LEFT" />
        <node concept="2T2mkW" id="7DEtAv3tecj" role="2T2mkG">
          <ref role="2T2mk5" node="4vv0wgO8fsl" resolve="skipProd" />
          <node concept="2T2mk0" id="7DEtAv3tecp" role="2T2mk3" />
        </node>
        <node concept="1NKo2b" id="7DEtAv3zxA_" role="2TSW_e">
          <ref role="1NKo2k" node="4vv0wgO8fsd" resolve="ExprProd" />
        </node>
        <node concept="2T2mkW" id="7DEtAv3zxC7" role="2TSVw7">
          <ref role="2T2mk5" node="3v$U6ONOdXX" resolve="prodIncompl2" />
          <node concept="2T2mk0" id="7DEtAv3zxCb" role="2T2mk3" />
          <node concept="2T2mk0" id="7DEtAv3zxCe" role="2T2mk3" />
        </node>
      </node>
      <node concept="4bpkG" id="3v$U6ONOe0g" role="4bpn7">
        <property role="2TflyH" value="30NnNOohrQL/RIGHT" />
        <node concept="2T2mkW" id="7DEtAv3qhqk" role="2T2mkG">
          <ref role="2T2mk5" node="3v$U6ONOdUw" resolve="prodIncompl1" />
          <node concept="2T2mk0" id="7DEtAv3qhqo" role="2T2mk3" />
          <node concept="2T2mk0" id="7DEtAv3qhqr" role="2T2mk3" />
        </node>
        <node concept="1NKo2b" id="7DEtAv3zxAB" role="2TSW_e">
          <ref role="1NKo2k" node="4vv0wgO8fsd" resolve="ExprProd" />
        </node>
        <node concept="2T2mkW" id="7DEtAv3zxCh" role="2TSVw7">
          <ref role="2T2mk5" node="4vv0wgO8ft0" resolve="prod" />
          <node concept="2T2mk0" id="7DEtAv3zxCl" role="2T2mk3" />
          <node concept="2T2mk0" id="7DEtAv3zxCo" role="2T2mk3" />
          <node concept="2T2mk0" id="7DEtAv3zxCr" role="2T2mk3" />
        </node>
      </node>
      <node concept="4bpkG" id="3v$U6ONOe0j" role="4bpn7">
        <property role="2TflyH" value="1A4kJjlVmVt/LEFT" />
        <node concept="2T2mkW" id="7DEtAv3qhqu" role="2T2mkG">
          <ref role="2T2mk5" node="3v$U6ONOdXX" resolve="prodIncompl2" />
          <node concept="2T2mk0" id="7DEtAv3qhqy" role="2T2mk3" />
          <node concept="2T2mk0" id="7DEtAv3qhq_" role="2T2mk3" />
        </node>
        <node concept="1NKo2b" id="7DEtAv3zxAD" role="2TSW_e">
          <ref role="1NKo2k" node="4vv0wgO8fsd" resolve="ExprProd" />
        </node>
        <node concept="2T2mkW" id="7DEtAv3zxCv" role="2TSVw7">
          <ref role="2T2mk5" node="4vv0wgO8ft0" resolve="prod" />
          <node concept="2T2mk0" id="7DEtAv3zxCz" role="2T2mk3" />
          <node concept="2T2mk0" id="7DEtAv3zxCA" role="2T2mk3" />
          <node concept="2T2mk0" id="7DEtAv3zxCD" role="2T2mk3" />
        </node>
      </node>
      <node concept="4bpkG" id="3v$U6ONOe0p" role="4bpn7">
        <property role="2TflyH" value="1A4kJjlVmVt/LEFT" />
        <node concept="2T2mkW" id="7DEtAv3qhqC" role="2T2mkG">
          <ref role="2T2mk5" node="3v$U6ONOdZ4" resolve="prodIncompl3" />
          <node concept="2T2mk0" id="7DEtAv3qhqG" role="2T2mk3" />
        </node>
        <node concept="1NKo2b" id="7DEtAv3zxAF" role="2TSW_e">
          <ref role="1NKo2k" node="4vv0wgO8fsd" resolve="ExprProd" />
        </node>
        <node concept="2T2mkW" id="7DEtAv3zxCH" role="2TSVw7">
          <ref role="2T2mk5" node="3v$U6ONOdUw" resolve="prodIncompl1" />
          <node concept="2T2mk0" id="7DEtAv3zxCL" role="2T2mk3" />
          <node concept="2T2mk0" id="7DEtAv3zxCO" role="2T2mk3" />
        </node>
      </node>
      <node concept="4bpkG" id="4wnHAmet4jH" role="4bpn7">
        <property role="2TflyH" value="30NnNOohrQL/RIGHT" />
        <node concept="1NKo2b" id="4wnHAmet4l8" role="2TSW_e">
          <ref role="1NKo2k" node="4vv0wgO8fsd" resolve="ExprProd" />
        </node>
        <node concept="2T2mkW" id="4wnHAmet4ld" role="2T2mkG">
          <ref role="2T2mk5" node="3v$U6ONOdZ4" resolve="prodIncompl3" />
          <node concept="2T2mk0" id="4wnHAmet4lf" role="2T2mk3" />
        </node>
        <node concept="2T2mkW" id="4wnHAmet4ll" role="2TSVw7">
          <ref role="2T2mk5" node="3v$U6ONOdXX" resolve="prodIncompl2" />
          <node concept="2T2mk0" id="4wnHAmet4ln" role="2T2mk3" />
          <node concept="2T2mk0" id="4wnHAmet4lr" role="2T2mk3" />
        </node>
      </node>
    </node>
    <node concept="1NKo23" id="4vv0wgO8biz" role="1NKo4T">
      <property role="TrG5h" value="plus" />
      <node concept="1NKo2b" id="4vv0wgO8frx" role="1NKo2m">
        <ref role="1NKo2k" node="4vv0wgO8frv" resolve="ExprSum" />
      </node>
      <node concept="1NKo2b" id="4vv0wgO8fr$" role="1NKo2g">
        <ref role="1NKo2k" node="4vv0wgO8frv" resolve="ExprSum" />
      </node>
      <node concept="1NKo28" id="4vv0wgO8frK" role="1NKo2g">
        <ref role="1NKo29" node="4vv0wgO8frF" resolve="+" />
      </node>
      <node concept="1NKo2b" id="4vv0wgO8fsg" role="1NKo2g">
        <ref role="1NKo2k" node="4vv0wgO8fsd" resolve="ExprProd" />
      </node>
    </node>
    <node concept="1NKo23" id="4vv0wgO8fsJ" role="1NKo4T">
      <property role="TrG5h" value="skipPlus" />
      <node concept="1NKo2b" id="4vv0wgO8fsV" role="1NKo2m">
        <ref role="1NKo2k" node="4vv0wgO8frv" resolve="ExprSum" />
      </node>
      <node concept="1NKo2b" id="4vv0wgO8fsY" role="1NKo2g">
        <ref role="1NKo2k" node="4vv0wgO8fsd" resolve="ExprProd" />
      </node>
    </node>
    <node concept="1NKo23" id="4vv0wgO8ft0" role="1NKo4T">
      <property role="TrG5h" value="prod" />
      <node concept="1NKo2b" id="4vv0wgO8ftf" role="1NKo2m">
        <ref role="1NKo2k" node="4vv0wgO8fsd" resolve="ExprProd" />
      </node>
      <node concept="1NKo2b" id="4vv0wgO8fti" role="1NKo2g">
        <ref role="1NKo2k" node="4vv0wgO8fsd" resolve="ExprProd" />
      </node>
      <node concept="1NKo28" id="4vv0wgO8ftr" role="1NKo2g">
        <ref role="1NKo29" node="4vv0wgO8frH" resolve="*" />
      </node>
      <node concept="1NKo2b" id="4vv0wgO8ftz" role="1NKo2g">
        <ref role="1NKo2k" node="4vv0wgO8fsx" resolve="ExprAtom" />
      </node>
    </node>
    <node concept="1NKo23" id="4vv0wgO8fsl" role="1NKo4T">
      <property role="TrG5h" value="skipProd" />
      <node concept="1NKo2b" id="4vv0wgO8fsu" role="1NKo2m">
        <ref role="1NKo2k" node="4vv0wgO8fsd" resolve="ExprProd" />
      </node>
      <node concept="1NKo2b" id="4vv0wgO8fs_" role="1NKo2g">
        <ref role="1NKo2k" node="4vv0wgO8fsx" resolve="ExprAtom" />
      </node>
    </node>
    <node concept="1NKo23" id="4vv0wgO8ftC" role="1NKo4T">
      <property role="TrG5h" value="paren" />
      <node concept="1NKo2b" id="4vv0wgO8ftW" role="1NKo2m">
        <ref role="1NKo2k" node="4vv0wgO8fsx" resolve="ExprAtom" />
      </node>
      <node concept="1NKo28" id="4vv0wgO8fu8" role="1NKo2g">
        <ref role="1NKo29" node="4vv0wgO8ftZ" resolve="(" />
      </node>
      <node concept="1NKo2b" id="4vv0wgO8fud" role="1NKo2g">
        <ref role="1NKo2k" node="4vv0wgO8frv" resolve="ExprSum" />
      </node>
      <node concept="1NKo28" id="4vv0wgO8ful" role="1NKo2g">
        <ref role="1NKo29" node="4vv0wgO8fu3" resolve=")" />
      </node>
    </node>
    <node concept="1NKo23" id="4vv0wgO8fuq" role="1NKo4T">
      <property role="TrG5h" value="literal" />
      <node concept="1NKo2b" id="4vv0wgO8fuN" role="1NKo2m">
        <ref role="1NKo2k" node="4vv0wgO8fsx" resolve="ExprAtom" />
      </node>
      <node concept="1NKo28" id="4vv0wgO8fuW" role="1NKo2g">
        <ref role="1NKo29" node="4vv0wgO8fuQ" resolve="constant" />
      </node>
    </node>
    <node concept="1NKo2d" id="4vv0wgO8frv" role="1NKo3r">
      <property role="TrG5h" value="ExprSum" />
    </node>
    <node concept="1NKo2d" id="4vv0wgO8fsd" role="1NKo3r">
      <property role="TrG5h" value="ExprProd" />
    </node>
    <node concept="1NKo2d" id="4vv0wgO8fsx" role="1NKo3r">
      <property role="TrG5h" value="ExprAtom" />
    </node>
    <node concept="1NKo2c" id="4vv0wgO8frF" role="1NKo3p">
      <property role="TrG5h" value="+" />
    </node>
    <node concept="1NKo2c" id="4vv0wgO8frH" role="1NKo3p">
      <property role="TrG5h" value="*" />
    </node>
    <node concept="1NKo2c" id="4vv0wgO8ftZ" role="1NKo3p">
      <property role="TrG5h" value="(" />
    </node>
    <node concept="1NKo2c" id="4vv0wgO8fu3" role="1NKo3p">
      <property role="TrG5h" value=")" />
    </node>
    <node concept="1NKo2c" id="4vv0wgO8fuQ" role="1NKo3p">
      <property role="TrG5h" value="constant" />
    </node>
    <node concept="1NXWSN" id="7DEtAv3T0Zu" role="1NX_hn">
      <property role="TrG5h" value="base grammar" />
      <node concept="1NXWSW" id="7DEtAv3T0Zv" role="1NXWTc">
        <node concept="1NKo2b" id="7DEtAv3T0Zw" role="1NXWSX">
          <ref role="1NKo2k" node="4vv0wgO8frv" resolve="ExprSum" />
        </node>
        <node concept="1NwDBm" id="7DEtAv3T0Zz" role="1NXWSZ">
          <ref role="2TJoPC" node="4vv0wgO8frv" resolve="ExprSum" />
          <node concept="1NwDB8" id="7DEtAv3T0Zx" role="1NwDBn">
            <node concept="1NwDB9" id="7DEtAv3T0Zy" role="1NwDBk">
              <ref role="1NwDBa" node="4vv0wgO8biz" resolve="plus" />
            </node>
          </node>
        </node>
        <node concept="1NwDBm" id="7DEtAv3T0ZA" role="1NXWSZ">
          <ref role="2TJoPC" node="4vv0wgO8fsd" resolve="ExprProd" />
          <node concept="1NwDB8" id="7DEtAv3T0Z$" role="1NwDBn">
            <node concept="1NwDB9" id="7DEtAv3T0Z_" role="1NwDBk">
              <ref role="1NwDBa" node="4vv0wgO8fsJ" resolve="skipPlus" />
            </node>
          </node>
        </node>
        <node concept="1NwDBm" id="7DEtAv3T0ZE" role="1NXWSZ">
          <ref role="2TJoPC" node="4vv0wgO8fsx" resolve="ExprAtom" />
          <node concept="1NwDB8" id="7DEtAv3T0ZB" role="1NwDBn">
            <node concept="1NwDB9" id="7DEtAv3T0ZC" role="1NwDBk">
              <ref role="1NwDBa" node="4vv0wgO8fsJ" resolve="skipPlus" />
            </node>
            <node concept="1NwDB9" id="7DEtAv3T0ZD" role="1NwDBk">
              <ref role="1NwDBa" node="4vv0wgO8fsl" resolve="skipProd" />
            </node>
          </node>
        </node>
        <node concept="1NwDBm" id="7DEtAv3T0ZJ" role="1NXWSZ">
          <ref role="2TJoPC" node="4vv0wgO8ftZ" resolve="(" />
          <node concept="1NwDB8" id="7DEtAv3T0ZF" role="1NwDBn">
            <node concept="1NwDB9" id="7DEtAv3T0ZG" role="1NwDBk">
              <ref role="1NwDBa" node="4vv0wgO8fsJ" resolve="skipPlus" />
            </node>
            <node concept="1NwDB9" id="7DEtAv3T0ZH" role="1NwDBk">
              <ref role="1NwDBa" node="4vv0wgO8fsl" resolve="skipProd" />
            </node>
            <node concept="1NwDB9" id="7DEtAv3T0ZI" role="1NwDBk">
              <ref role="1NwDBa" node="4vv0wgO8ftC" resolve="paren" />
            </node>
          </node>
        </node>
        <node concept="1NwDBm" id="7DEtAv3T0ZO" role="1NXWSZ">
          <ref role="2TJoPC" node="4vv0wgO8fuQ" resolve="constant" />
          <node concept="1NwDB8" id="7DEtAv3T0ZK" role="1NwDBn">
            <node concept="1NwDB9" id="7DEtAv3T0ZL" role="1NwDBk">
              <ref role="1NwDBa" node="4vv0wgO8fsJ" resolve="skipPlus" />
            </node>
            <node concept="1NwDB9" id="7DEtAv3T0ZM" role="1NwDBk">
              <ref role="1NwDBa" node="4vv0wgO8fsl" resolve="skipProd" />
            </node>
            <node concept="1NwDB9" id="7DEtAv3T0ZN" role="1NwDBk">
              <ref role="1NwDBa" node="4vv0wgO8fuq" resolve="literal" />
            </node>
          </node>
        </node>
      </node>
      <node concept="1NXWSW" id="7DEtAv3T0ZP" role="1NXWTc">
        <node concept="1NKo2b" id="7DEtAv3T0ZQ" role="1NXWSX">
          <ref role="1NKo2k" node="4vv0wgO8fsd" resolve="ExprProd" />
        </node>
        <node concept="1NwDBm" id="7DEtAv3T0ZT" role="1NXWSZ">
          <ref role="2TJoPC" node="4vv0wgO8fsd" resolve="ExprProd" />
          <node concept="1NwDB8" id="7DEtAv3T0ZR" role="1NwDBn">
            <node concept="1NwDB9" id="7DEtAv3T0ZS" role="1NwDBk">
              <ref role="1NwDBa" node="4vv0wgO8ft0" resolve="prod" />
            </node>
          </node>
        </node>
        <node concept="1NwDBm" id="7DEtAv3T0ZW" role="1NXWSZ">
          <ref role="2TJoPC" node="4vv0wgO8fsx" resolve="ExprAtom" />
          <node concept="1NwDB8" id="7DEtAv3T0ZU" role="1NwDBn">
            <node concept="1NwDB9" id="7DEtAv3T0ZV" role="1NwDBk">
              <ref role="1NwDBa" node="4vv0wgO8fsl" resolve="skipProd" />
            </node>
          </node>
        </node>
        <node concept="1NwDBm" id="7DEtAv3T100" role="1NXWSZ">
          <ref role="2TJoPC" node="4vv0wgO8ftZ" resolve="(" />
          <node concept="1NwDB8" id="7DEtAv3T0ZX" role="1NwDBn">
            <node concept="1NwDB9" id="7DEtAv3T0ZY" role="1NwDBk">
              <ref role="1NwDBa" node="4vv0wgO8fsl" resolve="skipProd" />
            </node>
            <node concept="1NwDB9" id="7DEtAv3T0ZZ" role="1NwDBk">
              <ref role="1NwDBa" node="4vv0wgO8ftC" resolve="paren" />
            </node>
          </node>
        </node>
        <node concept="1NwDBm" id="7DEtAv3T104" role="1NXWSZ">
          <ref role="2TJoPC" node="4vv0wgO8fuQ" resolve="constant" />
          <node concept="1NwDB8" id="7DEtAv3T101" role="1NwDBn">
            <node concept="1NwDB9" id="7DEtAv3T102" role="1NwDBk">
              <ref role="1NwDBa" node="4vv0wgO8fsl" resolve="skipProd" />
            </node>
            <node concept="1NwDB9" id="7DEtAv3T103" role="1NwDBk">
              <ref role="1NwDBa" node="4vv0wgO8fuq" resolve="literal" />
            </node>
          </node>
        </node>
      </node>
      <node concept="1NXWSW" id="7DEtAv3T105" role="1NXWTc">
        <node concept="1NKo2b" id="7DEtAv3T106" role="1NXWSX">
          <ref role="1NKo2k" node="4vv0wgO8fsx" resolve="ExprAtom" />
        </node>
        <node concept="1NwDBm" id="7DEtAv3T109" role="1NXWSZ">
          <ref role="2TJoPC" node="4vv0wgO8ftZ" resolve="(" />
          <node concept="1NwDB8" id="7DEtAv3T107" role="1NwDBn">
            <node concept="1NwDB9" id="7DEtAv3T108" role="1NwDBk">
              <ref role="1NwDBa" node="4vv0wgO8ftC" resolve="paren" />
            </node>
          </node>
        </node>
        <node concept="1NwDBm" id="7DEtAv3T10c" role="1NXWSZ">
          <ref role="2TJoPC" node="4vv0wgO8fuQ" resolve="constant" />
          <node concept="1NwDB8" id="7DEtAv3T10a" role="1NwDBn">
            <node concept="1NwDB9" id="7DEtAv3T10b" role="1NwDBk">
              <ref role="1NwDBa" node="4vv0wgO8fuq" resolve="literal" />
            </node>
          </node>
        </node>
      </node>
    </node>
    <node concept="1NXWSN" id="7DEtAv3T18Q" role="1NX_hn">
      <property role="TrG5h" value="augmented grammar" />
      <node concept="1NXWSW" id="7DEtAv3T18R" role="1NXWTc">
        <node concept="1NKo2b" id="7DEtAv3T18S" role="1NXWSX">
          <ref role="1NKo2k" node="4vv0wgO8frv" resolve="ExprSum" />
        </node>
        <node concept="1NwDBm" id="7DEtAv3T18X" role="1NXWSZ">
          <ref role="2TJoPC" node="4vv0wgO8frv" resolve="ExprSum" />
          <node concept="1NwDB8" id="7DEtAv3T18T" role="1NwDBn">
            <node concept="1NwDB9" id="7DEtAv3T18U" role="1NwDBk">
              <ref role="1NwDBa" node="4vv0wgO8biz" resolve="plus" />
            </node>
          </node>
          <node concept="1NwDB8" id="7DEtAv3T18V" role="1NwDBn">
            <node concept="1NwDB9" id="7DEtAv3T18W" role="1NwDBk">
              <ref role="1NwDBa" node="3v$U6ONMnLC" resolve="plusIncompl1" />
            </node>
          </node>
        </node>
        <node concept="1NwDBm" id="7DEtAv3T190" role="1NXWSZ">
          <ref role="2TJoPC" node="4vv0wgO8fsd" resolve="ExprProd" />
          <node concept="1NwDB8" id="7DEtAv3T18Y" role="1NwDBn">
            <node concept="1NwDB9" id="7DEtAv3T18Z" role="1NwDBk">
              <ref role="1NwDBa" node="4vv0wgO8fsJ" resolve="skipPlus" />
            </node>
          </node>
        </node>
        <node concept="1NwDBm" id="7DEtAv3T195" role="1NXWSZ">
          <ref role="2TJoPC" node="4vv0wgO8frF" resolve="+" />
          <node concept="1NwDB8" id="7DEtAv3T191" role="1NwDBn">
            <node concept="1NwDB9" id="7DEtAv3T192" role="1NwDBk">
              <ref role="1NwDBa" node="3v$U6ONMnMl" resolve="plusIncompl2" />
            </node>
          </node>
          <node concept="1NwDB8" id="7DEtAv3T193" role="1NwDBn">
            <node concept="1NwDB9" id="7DEtAv3T194" role="1NwDBk">
              <ref role="1NwDBa" node="3v$U6ONMnO9" resolve="plusIncompl3" />
            </node>
          </node>
        </node>
        <node concept="1NwDBm" id="7DEtAv3T199" role="1NXWSZ">
          <ref role="2TJoPC" node="4vv0wgO8fsx" resolve="ExprAtom" />
          <node concept="1NwDB8" id="7DEtAv3T196" role="1NwDBn">
            <node concept="1NwDB9" id="7DEtAv3T197" role="1NwDBk">
              <ref role="1NwDBa" node="4vv0wgO8fsJ" resolve="skipPlus" />
            </node>
            <node concept="1NwDB9" id="7DEtAv3T198" role="1NwDBk">
              <ref role="1NwDBa" node="4vv0wgO8fsl" resolve="skipProd" />
            </node>
          </node>
        </node>
        <node concept="1NwDBm" id="7DEtAv3T19g" role="1NXWSZ">
          <ref role="2TJoPC" node="4vv0wgO8frH" resolve="*" />
          <node concept="1NwDB8" id="7DEtAv3T19a" role="1NwDBn">
            <node concept="1NwDB9" id="7DEtAv3T19b" role="1NwDBk">
              <ref role="1NwDBa" node="4vv0wgO8fsJ" resolve="skipPlus" />
            </node>
            <node concept="1NwDB9" id="7DEtAv3T19c" role="1NwDBk">
              <ref role="1NwDBa" node="3v$U6ONOdXX" resolve="prodIncompl2" />
            </node>
          </node>
          <node concept="1NwDB8" id="7DEtAv3T19d" role="1NwDBn">
            <node concept="1NwDB9" id="7DEtAv3T19e" role="1NwDBk">
              <ref role="1NwDBa" node="4vv0wgO8fsJ" resolve="skipPlus" />
            </node>
            <node concept="1NwDB9" id="7DEtAv3T19f" role="1NwDBk">
              <ref role="1NwDBa" node="3v$U6ONOdZ4" resolve="prodIncompl3" />
            </node>
          </node>
        </node>
        <node concept="1NwDBm" id="7DEtAv3T19l" role="1NXWSZ">
          <ref role="2TJoPC" node="4vv0wgO8ftZ" resolve="(" />
          <node concept="1NwDB8" id="7DEtAv3T19h" role="1NwDBn">
            <node concept="1NwDB9" id="7DEtAv3T19i" role="1NwDBk">
              <ref role="1NwDBa" node="4vv0wgO8fsJ" resolve="skipPlus" />
            </node>
            <node concept="1NwDB9" id="7DEtAv3T19j" role="1NwDBk">
              <ref role="1NwDBa" node="4vv0wgO8fsl" resolve="skipProd" />
            </node>
            <node concept="1NwDB9" id="7DEtAv3T19k" role="1NwDBk">
              <ref role="1NwDBa" node="4vv0wgO8ftC" resolve="paren" />
            </node>
          </node>
        </node>
        <node concept="1NwDBm" id="7DEtAv3T19q" role="1NXWSZ">
          <ref role="2TJoPC" node="4vv0wgO8fuQ" resolve="constant" />
          <node concept="1NwDB8" id="7DEtAv3T19m" role="1NwDBn">
            <node concept="1NwDB9" id="7DEtAv3T19n" role="1NwDBk">
              <ref role="1NwDBa" node="4vv0wgO8fsJ" resolve="skipPlus" />
            </node>
            <node concept="1NwDB9" id="7DEtAv3T19o" role="1NwDBk">
              <ref role="1NwDBa" node="4vv0wgO8fsl" resolve="skipProd" />
            </node>
            <node concept="1NwDB9" id="7DEtAv3T19p" role="1NwDBk">
              <ref role="1NwDBa" node="4vv0wgO8fuq" resolve="literal" />
            </node>
          </node>
        </node>
      </node>
      <node concept="1NXWSW" id="7DEtAv3T19r" role="1NXWTc">
        <node concept="1NKo2b" id="7DEtAv3T19s" role="1NXWSX">
          <ref role="1NKo2k" node="4vv0wgO8fsd" resolve="ExprProd" />
        </node>
        <node concept="1NwDBm" id="7DEtAv3T19x" role="1NXWSZ">
          <ref role="2TJoPC" node="4vv0wgO8fsd" resolve="ExprProd" />
          <node concept="1NwDB8" id="7DEtAv3T19t" role="1NwDBn">
            <node concept="1NwDB9" id="7DEtAv3T19u" role="1NwDBk">
              <ref role="1NwDBa" node="4vv0wgO8ft0" resolve="prod" />
            </node>
          </node>
          <node concept="1NwDB8" id="7DEtAv3T19v" role="1NwDBn">
            <node concept="1NwDB9" id="7DEtAv3T19w" role="1NwDBk">
              <ref role="1NwDBa" node="3v$U6ONOdUw" resolve="prodIncompl1" />
            </node>
          </node>
        </node>
        <node concept="1NwDBm" id="7DEtAv3T19$" role="1NXWSZ">
          <ref role="2TJoPC" node="4vv0wgO8fsx" resolve="ExprAtom" />
          <node concept="1NwDB8" id="7DEtAv3T19y" role="1NwDBn">
            <node concept="1NwDB9" id="7DEtAv3T19z" role="1NwDBk">
              <ref role="1NwDBa" node="4vv0wgO8fsl" resolve="skipProd" />
            </node>
          </node>
        </node>
        <node concept="1NwDBm" id="7DEtAv3T19D" role="1NXWSZ">
          <ref role="2TJoPC" node="4vv0wgO8frH" resolve="*" />
          <node concept="1NwDB8" id="7DEtAv3T19_" role="1NwDBn">
            <node concept="1NwDB9" id="7DEtAv3T19A" role="1NwDBk">
              <ref role="1NwDBa" node="3v$U6ONOdXX" resolve="prodIncompl2" />
            </node>
          </node>
          <node concept="1NwDB8" id="7DEtAv3T19B" role="1NwDBn">
            <node concept="1NwDB9" id="7DEtAv3T19C" role="1NwDBk">
              <ref role="1NwDBa" node="3v$U6ONOdZ4" resolve="prodIncompl3" />
            </node>
          </node>
        </node>
        <node concept="1NwDBm" id="7DEtAv3T19H" role="1NXWSZ">
          <ref role="2TJoPC" node="4vv0wgO8ftZ" resolve="(" />
          <node concept="1NwDB8" id="7DEtAv3T19E" role="1NwDBn">
            <node concept="1NwDB9" id="7DEtAv3T19F" role="1NwDBk">
              <ref role="1NwDBa" node="4vv0wgO8fsl" resolve="skipProd" />
            </node>
            <node concept="1NwDB9" id="7DEtAv3T19G" role="1NwDBk">
              <ref role="1NwDBa" node="4vv0wgO8ftC" resolve="paren" />
            </node>
          </node>
        </node>
        <node concept="1NwDBm" id="7DEtAv3T19L" role="1NXWSZ">
          <ref role="2TJoPC" node="4vv0wgO8fuQ" resolve="constant" />
          <node concept="1NwDB8" id="7DEtAv3T19I" role="1NwDBn">
            <node concept="1NwDB9" id="7DEtAv3T19J" role="1NwDBk">
              <ref role="1NwDBa" node="4vv0wgO8fsl" resolve="skipProd" />
            </node>
            <node concept="1NwDB9" id="7DEtAv3T19K" role="1NwDBk">
              <ref role="1NwDBa" node="4vv0wgO8fuq" resolve="literal" />
            </node>
          </node>
        </node>
      </node>
      <node concept="1NXWSW" id="7DEtAv3T19M" role="1NXWTc">
        <node concept="1NKo2b" id="7DEtAv3T19N" role="1NXWSX">
          <ref role="1NKo2k" node="4vv0wgO8fsx" resolve="ExprAtom" />
        </node>
        <node concept="1NwDBm" id="7DEtAv3T19Q" role="1NXWSZ">
          <ref role="2TJoPC" node="4vv0wgO8ftZ" resolve="(" />
          <node concept="1NwDB8" id="7DEtAv3T19O" role="1NwDBn">
            <node concept="1NwDB9" id="7DEtAv3T19P" role="1NwDBk">
              <ref role="1NwDBa" node="4vv0wgO8ftC" resolve="paren" />
            </node>
          </node>
        </node>
        <node concept="1NwDBm" id="7DEtAv3T19T" role="1NXWSZ">
          <ref role="2TJoPC" node="4vv0wgO8fuQ" resolve="constant" />
          <node concept="1NwDB8" id="7DEtAv3T19R" role="1NwDBn">
            <node concept="1NwDB9" id="7DEtAv3T19S" role="1NwDBk">
              <ref role="1NwDBa" node="4vv0wgO8fuq" resolve="literal" />
            </node>
          </node>
        </node>
      </node>
    </node>
    <node concept="1NXWSN" id="6bof7Fuwdil" role="1NX_hn">
      <property role="TrG5h" value="reduced: base grammar" />
      <node concept="1NXWSW" id="6bof7Fuwdim" role="1NXWTc">
        <node concept="1NKo2b" id="6bof7Fuwdin" role="1NXWSX">
          <ref role="1NKo2k" node="4vv0wgO8frv" resolve="ExprSum" />
        </node>
        <node concept="1NwDBm" id="6bof7Fuwdio" role="1NXWSZ">
          <ref role="2TJoPC" node="4vv0wgO8frv" resolve="ExprSum" />
          <node concept="1NwDB8" id="6bof7Fuwdip" role="1NwDBn">
            <node concept="1NwDB9" id="6bof7Fuwdiq" role="1NwDBk">
              <ref role="1NwDBa" node="4vv0wgO8biz" resolve="plus" />
            </node>
          </node>
        </node>
        <node concept="1NwDBm" id="6bof7Fuwdir" role="1NXWSZ">
          <ref role="2TJoPC" node="4vv0wgO8fsd" resolve="ExprProd" />
          <node concept="1NwDB8" id="6bof7Fuwdis" role="1NwDBn">
            <node concept="1NwDB9" id="6bof7Fuwdit" role="1NwDBk">
              <ref role="1NwDBa" node="4vv0wgO8fsJ" resolve="skipPlus" />
            </node>
          </node>
        </node>
        <node concept="1NwDBm" id="6bof7Fuwdiu" role="1NXWSZ">
          <ref role="2TJoPC" node="4vv0wgO8fsx" resolve="ExprAtom" />
          <node concept="1NwDB8" id="6bof7Fuwdiv" role="1NwDBn">
            <node concept="1NwDB9" id="6bof7Fuwdiw" role="1NwDBk">
              <ref role="1NwDBa" node="4vv0wgO8fsJ" resolve="skipPlus" />
            </node>
            <node concept="1NwDB9" id="6bof7Fuwdix" role="1NwDBk">
              <ref role="1NwDBa" node="4vv0wgO8fsl" resolve="skipProd" />
            </node>
          </node>
        </node>
        <node concept="1NwDBm" id="6bof7Fuwdiy" role="1NXWSZ">
          <ref role="2TJoPC" node="4vv0wgO8ftZ" resolve="(" />
          <node concept="1NwDB8" id="6bof7Fuwdiz" role="1NwDBn">
            <node concept="1NwDB9" id="6bof7Fuwdi$" role="1NwDBk">
              <ref role="1NwDBa" node="4vv0wgO8fsJ" resolve="skipPlus" />
            </node>
            <node concept="1NwDB9" id="6bof7Fuwdi_" role="1NwDBk">
              <ref role="1NwDBa" node="4vv0wgO8fsl" resolve="skipProd" />
            </node>
            <node concept="1NwDB9" id="6bof7FuwdiA" role="1NwDBk">
              <ref role="1NwDBa" node="4vv0wgO8ftC" resolve="paren" />
            </node>
          </node>
        </node>
        <node concept="1NwDBm" id="6bof7FuwdiB" role="1NXWSZ">
          <ref role="2TJoPC" node="4vv0wgO8fuQ" resolve="constant" />
          <node concept="1NwDB8" id="6bof7FuwdiC" role="1NwDBn">
            <node concept="1NwDB9" id="6bof7FuwdiD" role="1NwDBk">
              <ref role="1NwDBa" node="4vv0wgO8fsJ" resolve="skipPlus" />
            </node>
            <node concept="1NwDB9" id="6bof7FuwdiE" role="1NwDBk">
              <ref role="1NwDBa" node="4vv0wgO8fsl" resolve="skipProd" />
            </node>
            <node concept="1NwDB9" id="6bof7FuwdiF" role="1NwDBk">
              <ref role="1NwDBa" node="4vv0wgO8fuq" resolve="literal" />
            </node>
          </node>
        </node>
      </node>
      <node concept="1NXWSW" id="6bof7FuwdiG" role="1NXWTc">
        <node concept="1NKo2b" id="6bof7FuwdiH" role="1NXWSX">
          <ref role="1NKo2k" node="4vv0wgO8fsd" resolve="ExprProd" />
        </node>
        <node concept="1NwDBm" id="6bof7FuwdiI" role="1NXWSZ">
          <ref role="2TJoPC" node="4vv0wgO8fsd" resolve="ExprProd" />
          <node concept="1NwDB8" id="6bof7FuwdiJ" role="1NwDBn">
            <node concept="1NwDB9" id="6bof7FuwdiK" role="1NwDBk">
              <ref role="1NwDBa" node="4vv0wgO8ft0" resolve="prod" />
            </node>
          </node>
        </node>
        <node concept="1NwDBm" id="6bof7FuwdiL" role="1NXWSZ">
          <ref role="2TJoPC" node="4vv0wgO8fsx" resolve="ExprAtom" />
          <node concept="1NwDB8" id="6bof7FuwdiM" role="1NwDBn">
            <node concept="1NwDB9" id="6bof7FuwdiN" role="1NwDBk">
              <ref role="1NwDBa" node="4vv0wgO8fsl" resolve="skipProd" />
            </node>
          </node>
        </node>
        <node concept="1NwDBm" id="6bof7FuwdiO" role="1NXWSZ">
          <ref role="2TJoPC" node="4vv0wgO8ftZ" resolve="(" />
          <node concept="1NwDB8" id="6bof7FuwdiP" role="1NwDBn">
            <node concept="1NwDB9" id="6bof7FuwdiQ" role="1NwDBk">
              <ref role="1NwDBa" node="4vv0wgO8fsl" resolve="skipProd" />
            </node>
            <node concept="1NwDB9" id="6bof7FuwdiR" role="1NwDBk">
              <ref role="1NwDBa" node="4vv0wgO8ftC" resolve="paren" />
            </node>
          </node>
        </node>
        <node concept="1NwDBm" id="6bof7FuwdiS" role="1NXWSZ">
          <ref role="2TJoPC" node="4vv0wgO8fuQ" resolve="constant" />
          <node concept="1NwDB8" id="6bof7FuwdiT" role="1NwDBn">
            <node concept="1NwDB9" id="6bof7FuwdiU" role="1NwDBk">
              <ref role="1NwDBa" node="4vv0wgO8fsl" resolve="skipProd" />
            </node>
            <node concept="1NwDB9" id="6bof7FuwdiV" role="1NwDBk">
              <ref role="1NwDBa" node="4vv0wgO8fuq" resolve="literal" />
            </node>
          </node>
        </node>
      </node>
      <node concept="1NXWSW" id="6bof7FuwdiW" role="1NXWTc">
        <node concept="1NKo2b" id="6bof7FuwdiX" role="1NXWSX">
          <ref role="1NKo2k" node="4vv0wgO8fsx" resolve="ExprAtom" />
        </node>
        <node concept="1NwDBm" id="6bof7FuwdiY" role="1NXWSZ">
          <ref role="2TJoPC" node="4vv0wgO8ftZ" resolve="(" />
          <node concept="1NwDB8" id="6bof7FuwdiZ" role="1NwDBn">
            <node concept="1NwDB9" id="6bof7Fuwdj0" role="1NwDBk">
              <ref role="1NwDBa" node="4vv0wgO8ftC" resolve="paren" />
            </node>
          </node>
        </node>
        <node concept="1NwDBm" id="6bof7Fuwdj1" role="1NXWSZ">
          <ref role="2TJoPC" node="4vv0wgO8fuQ" resolve="constant" />
          <node concept="1NwDB8" id="6bof7Fuwdj2" role="1NwDBn">
            <node concept="1NwDB9" id="6bof7Fuwdj3" role="1NwDBk">
              <ref role="1NwDBa" node="4vv0wgO8fuq" resolve="literal" />
            </node>
          </node>
        </node>
      </node>
    </node>
  </node>
  <node concept="1NZz$r" id="4vv0wgO8qRi">
    <property role="TrG5h" value="sample1" />
    <ref role="1NZ$tB" node="4vv0wgO7LYu" resolve="Grammar1" />
    <node concept="1NZz$$" id="4vv0wgO8qRj" role="1NZ$sq">
      <node concept="1NKo2b" id="4vv0wgO8qRp" role="1NZz$_">
        <ref role="1NKo2k" node="4vv0wgO8frv" resolve="ExprSum" />
      </node>
      <node concept="1NZz$H" id="4vv0wgO9JBj" role="1NZz$B">
        <ref role="1NZz$I" node="4vv0wgO8biz" resolve="plus" />
        <node concept="1NZz$H" id="4vv0wgO9JBP" role="1NZz$R">
          <ref role="1NZz$I" node="4vv0wgO8fsJ" resolve="skipPlus" />
          <node concept="1NZz$H" id="4vv0wgO9JBU" role="1NZz$R">
            <ref role="1NZz$I" node="4vv0wgO8fsl" resolve="skipProd" />
            <node concept="1NZz$H" id="4vv0wgO9JBY" role="1NZz$R">
              <ref role="1NZz$I" node="4vv0wgO8fuq" resolve="literal" />
              <node concept="1NZz$y" id="4vv0wgO9JC0" role="1NZz$R">
                <ref role="1NZz$z" node="4vv0wgO8fuQ" resolve="constant" />
              </node>
            </node>
          </node>
        </node>
        <node concept="1NZz$y" id="4vv0wgO9JBr" role="1NZz$R">
          <ref role="1NZz$z" node="4vv0wgO8frF" resolve="+" />
        </node>
        <node concept="1NZz$H" id="4vv0wgO9JBC" role="1NZz$R">
          <ref role="1NZz$I" node="4vv0wgO8fsl" resolve="skipProd" />
          <node concept="1NZz$H" id="4vv0wgO9JC2" role="1NZz$R">
            <ref role="1NZz$I" node="4vv0wgO8ftC" resolve="paren" />
            <node concept="1NZz$y" id="7DEtAv3GvmO" role="1NZz$R">
              <ref role="1NZz$z" node="4vv0wgO8ftZ" resolve="(" />
            </node>
            <node concept="1NZz$H" id="4vv0wgO9JCh" role="1NZz$R">
              <ref role="1NZz$I" node="4vv0wgO8fsJ" resolve="skipPlus" />
              <node concept="1NZz$H" id="4vv0wgO9JCm" role="1NZz$R">
                <ref role="1NZz$I" node="4vv0wgO8fsl" resolve="skipProd" />
                <node concept="1NZz$H" id="4vv0wgO9JCq" role="1NZz$R">
                  <ref role="1NZz$I" node="4vv0wgO8fuq" resolve="literal" />
                  <node concept="1NZz$y" id="7DEtAv3wvSA" role="1NZz$R">
                    <ref role="1NZz$z" node="4vv0wgO8fuQ" resolve="constant" />
                  </node>
                </node>
              </node>
            </node>
            <node concept="1NZz$y" id="4vv0wgO9JC9" role="1NZz$R">
              <ref role="1NZz$z" node="4vv0wgO8fu3" resolve=")" />
            </node>
          </node>
        </node>
      </node>
    </node>
    <node concept="1NZz$$" id="7DEtAv3nAfb" role="1NZ$sq">
      <node concept="1NKo2b" id="7DEtAv3nAfc" role="1NZz$_">
        <ref role="1NKo2k" node="4vv0wgO8frv" resolve="ExprSum" />
      </node>
      <node concept="1NZz$H" id="7DEtAv3nAfd" role="1NZz$B">
        <ref role="1NZz$I" node="4vv0wgO8biz" resolve="plus" />
        <node concept="1NZz$H" id="7DEtAv3nAfe" role="1NZz$R">
          <ref role="1NZz$I" node="4vv0wgO8fsJ" resolve="skipPlus" />
          <node concept="1NZz$H" id="7DEtAv3nAff" role="1NZz$R">
            <ref role="1NZz$I" node="4vv0wgO8fsl" resolve="skipProd" />
            <node concept="1NZz$H" id="7DEtAv3nAfg" role="1NZz$R">
              <ref role="1NZz$I" node="4vv0wgO8fuq" resolve="literal" />
              <node concept="1NZz$y" id="7DEtAv3nAfh" role="1NZz$R">
                <ref role="1NZz$z" node="4vv0wgO8fuQ" resolve="constant" />
              </node>
            </node>
          </node>
        </node>
        <node concept="1NZz$y" id="7DEtAv3nAfi" role="1NZz$R">
          <ref role="1NZz$z" node="4vv0wgO8frF" resolve="+" />
        </node>
        <node concept="1NZz$H" id="7DEtAv3nAfn" role="1NZz$R">
          <ref role="1NZz$I" node="4vv0wgO8fsl" resolve="skipProd" />
          <node concept="1NZz$H" id="7DEtAv3nAfo" role="1NZz$R">
            <ref role="1NZz$I" node="4vv0wgO8fuq" resolve="literal" />
            <node concept="1NZz$y" id="6bof7Fuwcof" role="1NZz$R">
              <ref role="1NZz$z" node="4vv0wgO8fuQ" resolve="constant" />
            </node>
          </node>
        </node>
      </node>
    </node>
    <node concept="1NZz$$" id="6bof7FuwduE" role="1NZ$sq">
      <node concept="1NKo2b" id="6bof7Fuwdvb" role="1NZz$_">
        <ref role="1NKo2k" node="4vv0wgO8frv" resolve="ExprSum" />
      </node>
      <node concept="1NZz$y" id="6bof7Fuwsx8" role="1NZz$B">
        <ref role="1NZz$z" node="4vv0wgO8frF" resolve="+" />
      </node>
    </node>
  </node>
  <node concept="1NKo22" id="4vv0wgOgx_x">
    <property role="TrG5h" value="Grammar2" />
    <node concept="1NKo23" id="4vv0wgOhsTF" role="1NKo4T">
      <property role="TrG5h" value="0" />
      <node concept="1NKo2b" id="4vv0wgOhsU8" role="1NKo2m">
        <ref role="1NKo2k" node="4vv0wgOhsU4" resolve="S" />
      </node>
      <node concept="1NKo2b" id="4vv0wgOhsUe" role="1NKo2g">
        <ref role="1NKo2k" node="4vv0wgOgxA9" resolve="E" />
      </node>
      <node concept="1NKo28" id="4vv0wgOhsUk" role="1NKo2g">
        <ref role="1NKo29" node="4vv0wgOhsT_" resolve="$" />
      </node>
    </node>
    <node concept="1NKo23" id="4vv0wgOgx_R" role="1NKo4T">
      <property role="TrG5h" value="1" />
      <node concept="1NKo2b" id="4vv0wgOgxA$" role="1NKo2m">
        <ref role="1NKo2k" node="4vv0wgOgxA9" resolve="E" />
      </node>
      <node concept="1NKo2b" id="4vv0wgOgPCI" role="1NKo2g">
        <ref role="1NKo2k" node="4vv0wgOgxA9" resolve="E" />
      </node>
      <node concept="1NKo28" id="4vv0wgOgTKu" role="1NKo2g">
        <ref role="1NKo29" node="4vv0wgOgxAo" resolve="*" />
      </node>
      <node concept="1NKo2b" id="4vv0wgOgTul" role="1NKo2g">
        <ref role="1NKo2k" node="4vv0wgOgxAg" resolve="B" />
      </node>
    </node>
    <node concept="1NKo23" id="4vv0wgOgx_J" role="1NKo4T">
      <property role="TrG5h" value="2" />
      <node concept="1NKo2b" id="4vv0wgOgTut" role="1NKo2m">
        <ref role="1NKo2k" node="4vv0wgOgxA9" resolve="E" />
      </node>
      <node concept="1NKo2b" id="4vv0wgOgTuw" role="1NKo2g">
        <ref role="1NKo2k" node="4vv0wgOgxA9" resolve="E" />
      </node>
      <node concept="1NKo28" id="4vv0wgOgTKz" role="1NKo2g">
        <ref role="1NKo29" node="4vv0wgOgxAm" resolve="+" />
      </node>
      <node concept="1NKo2b" id="4vv0wgOgTKC" role="1NKo2g">
        <ref role="1NKo2k" node="4vv0wgOgxAg" resolve="B" />
      </node>
    </node>
    <node concept="1NKo23" id="4vv0wgOgx_O" role="1NKo4T">
      <property role="TrG5h" value="3" />
      <node concept="1NKo2b" id="4vv0wgOgTLt" role="1NKo2m">
        <ref role="1NKo2k" node="4vv0wgOgxA9" resolve="E" />
      </node>
      <node concept="1NKo2b" id="4vv0wgOgTLw" role="1NKo2g">
        <ref role="1NKo2k" node="4vv0wgOgxAg" resolve="B" />
      </node>
    </node>
    <node concept="1NKo23" id="4vv0wgOgx_W" role="1NKo4T">
      <property role="TrG5h" value="4" />
      <node concept="1NKo2b" id="4vv0wgOgTLz" role="1NKo2m">
        <ref role="1NKo2k" node="4vv0wgOgxAg" resolve="B" />
      </node>
      <node concept="1NKo28" id="4vv0wgOgTLA" role="1NKo2g">
        <ref role="1NKo29" node="4vv0wgOgxAr" resolve="0" />
      </node>
    </node>
    <node concept="1NKo23" id="4vv0wgOgx_Z" role="1NKo4T">
      <property role="TrG5h" value="5" />
      <node concept="1NKo2b" id="4vv0wgOgTLD" role="1NKo2m">
        <ref role="1NKo2k" node="4vv0wgOgxAg" resolve="B" />
      </node>
      <node concept="1NKo28" id="4vv0wgOgTLJ" role="1NKo2g">
        <ref role="1NKo29" node="4vv0wgOgxAv" resolve="1" />
      </node>
    </node>
    <node concept="1NKo2d" id="4vv0wgOgxA9" role="1NKo3r">
      <property role="TrG5h" value="E" />
    </node>
    <node concept="1NKo2d" id="4vv0wgOgxAg" role="1NKo3r">
      <property role="TrG5h" value="B" />
    </node>
    <node concept="1NKo2d" id="4vv0wgOhsU4" role="1NKo3r">
      <property role="TrG5h" value="S" />
    </node>
    <node concept="1NKo2c" id="4vv0wgOgxAm" role="1NKo3p">
      <property role="TrG5h" value="+" />
    </node>
    <node concept="1NKo2c" id="4vv0wgOgxAo" role="1NKo3p">
      <property role="TrG5h" value="*" />
    </node>
    <node concept="1NKo2c" id="4vv0wgOgxAr" role="1NKo3p">
      <property role="TrG5h" value="0" />
    </node>
    <node concept="1NKo2c" id="4vv0wgOgxAv" role="1NKo3p">
      <property role="TrG5h" value="1" />
    </node>
    <node concept="1NKo2c" id="4vv0wgOhsT_" role="1NKo3p">
      <property role="TrG5h" value="$" />
    </node>
    <node concept="1NBCxF" id="4vv0wgOhjPP" role="1NX_hn">
      <node concept="1NKo23" id="4vv0wgOht7y" role="1NBCxP">
        <property role="TrG5h" value="0" />
        <node concept="1NKo2b" id="4vv0wgOht7z" role="1NKo2m">
          <ref role="1NKo2k" node="4vv0wgOhsU4" resolve="S" />
        </node>
        <node concept="1NBCxR" id="4vv0wgOhy$S" role="lGtFl">
          <property role="3V$3am" value="rightHandSide" />
          <property role="3V$3ak" value="89a8aaa6-0c50-49f2-a5c2-b956fa8e5588/5178860313576899207/5178860313576899220" />
        </node>
        <node concept="1NKo2b" id="4vv0wgOht7$" role="1NKo2g">
          <ref role="1NKo2k" node="4vv0wgOgxA9" resolve="E" />
        </node>
        <node concept="1NKo28" id="4vv0wgOht7_" role="1NKo2g">
          <ref role="1NKo29" node="4vv0wgOhsT_" resolve="$" />
        </node>
      </node>
      <node concept="1NKo23" id="4vv0wgOhsSZ" role="1NBCxP">
        <property role="TrG5h" value="1" />
        <node concept="1NKo2b" id="4vv0wgOhsT0" role="1NKo2m">
          <ref role="1NKo2k" node="4vv0wgOgxA9" resolve="E" />
        </node>
        <node concept="1NBCxR" id="4vv0wgOhy$T" role="lGtFl">
          <property role="3V$3am" value="rightHandSide" />
          <property role="3V$3ak" value="89a8aaa6-0c50-49f2-a5c2-b956fa8e5588/5178860313576899207/5178860313576899220" />
        </node>
        <node concept="1NKo2b" id="4vv0wgOhsT1" role="1NKo2g">
          <ref role="1NKo2k" node="4vv0wgOgxA9" resolve="E" />
        </node>
        <node concept="1NKo28" id="4vv0wgOhsT2" role="1NKo2g">
          <ref role="1NKo29" node="4vv0wgOgxAo" resolve="*" />
        </node>
        <node concept="1NKo2b" id="4vv0wgOhsT3" role="1NKo2g">
          <ref role="1NKo2k" node="4vv0wgOgxAg" resolve="B" />
        </node>
      </node>
      <node concept="1NKo23" id="4vv0wgOhsT4" role="1NBCxP">
        <property role="TrG5h" value="2" />
        <node concept="1NKo2b" id="4vv0wgOhsT5" role="1NKo2m">
          <ref role="1NKo2k" node="4vv0wgOgxA9" resolve="E" />
        </node>
        <node concept="1NBCxR" id="4vv0wgOhy$U" role="lGtFl">
          <property role="3V$3am" value="rightHandSide" />
          <property role="3V$3ak" value="89a8aaa6-0c50-49f2-a5c2-b956fa8e5588/5178860313576899207/5178860313576899220" />
        </node>
        <node concept="1NKo2b" id="4vv0wgOhsT6" role="1NKo2g">
          <ref role="1NKo2k" node="4vv0wgOgxA9" resolve="E" />
        </node>
        <node concept="1NKo28" id="4vv0wgOhsT7" role="1NKo2g">
          <ref role="1NKo29" node="4vv0wgOgxAm" resolve="+" />
        </node>
        <node concept="1NKo2b" id="4vv0wgOhsT8" role="1NKo2g">
          <ref role="1NKo2k" node="4vv0wgOgxAg" resolve="B" />
        </node>
      </node>
      <node concept="1NKo23" id="4vv0wgOhsT9" role="1NBCxP">
        <property role="TrG5h" value="3" />
        <node concept="1NKo2b" id="4vv0wgOhsTa" role="1NKo2m">
          <ref role="1NKo2k" node="4vv0wgOgxA9" resolve="E" />
        </node>
        <node concept="1NBCxR" id="4vv0wgOhy$V" role="lGtFl">
          <property role="3V$3am" value="rightHandSide" />
          <property role="3V$3ak" value="89a8aaa6-0c50-49f2-a5c2-b956fa8e5588/5178860313576899207/5178860313576899220" />
        </node>
        <node concept="1NKo2b" id="4vv0wgOhsTb" role="1NKo2g">
          <ref role="1NKo2k" node="4vv0wgOgxAg" resolve="B" />
        </node>
      </node>
      <node concept="1NKo23" id="4vv0wgOhsTc" role="1NBCxP">
        <property role="TrG5h" value="4" />
        <node concept="1NKo2b" id="4vv0wgOhsTd" role="1NKo2m">
          <ref role="1NKo2k" node="4vv0wgOgxAg" resolve="B" />
        </node>
        <node concept="1NBCxR" id="4vv0wgOhy$W" role="lGtFl">
          <property role="3V$3am" value="rightHandSide" />
          <property role="3V$3ak" value="89a8aaa6-0c50-49f2-a5c2-b956fa8e5588/5178860313576899207/5178860313576899220" />
        </node>
        <node concept="1NKo28" id="4vv0wgOhsTe" role="1NKo2g">
          <ref role="1NKo29" node="4vv0wgOgxAr" resolve="0" />
        </node>
      </node>
      <node concept="1NKo23" id="4vv0wgOhsTf" role="1NBCxP">
        <property role="TrG5h" value="5" />
        <node concept="1NKo2b" id="4vv0wgOhsTg" role="1NKo2m">
          <ref role="1NKo2k" node="4vv0wgOgxAg" resolve="B" />
        </node>
        <node concept="1NBCxR" id="4vv0wgOhy$X" role="lGtFl">
          <property role="3V$3am" value="rightHandSide" />
          <property role="3V$3ak" value="89a8aaa6-0c50-49f2-a5c2-b956fa8e5588/5178860313576899207/5178860313576899220" />
        </node>
        <node concept="1NKo28" id="4vv0wgOhsTh" role="1NKo2g">
          <ref role="1NKo29" node="4vv0wgOgxAv" resolve="1" />
        </node>
      </node>
      <node concept="1NKo23" id="4vv0wgOhzUi" role="1NBCxP">
        <node concept="1NKo2b" id="4vv0wgOhzUj" role="1NKo2m" />
        <node concept="1NKo2l" id="4vv0wgOhzUk" role="1NKo2g" />
      </node>
      <node concept="1NKo23" id="4vv0wgOhyJ1" role="1NBCxP">
        <property role="TrG5h" value="4" />
        <node concept="1NKo2b" id="4vv0wgOhyJ2" role="1NKo2m">
          <ref role="1NKo2k" node="4vv0wgOgxAg" resolve="B" />
        </node>
        <node concept="1NKo28" id="4vv0wgOhyJ3" role="1NKo2g">
          <ref role="1NKo29" node="4vv0wgOgxAr" resolve="0" />
        </node>
        <node concept="1NBCxR" id="4vv0wgOhyJ4" role="lGtFl">
          <property role="3V$3am" value="rightHandSide" />
          <property role="3V$3ak" value="89a8aaa6-0c50-49f2-a5c2-b956fa8e5588/5178860313576899207/5178860313576899220" />
        </node>
      </node>
      <node concept="1NKo23" id="4vv0wgOhzSP" role="1NBCxP">
        <node concept="1NKo2b" id="4vv0wgOhzSQ" role="1NKo2m" />
        <node concept="1NKo2l" id="4vv0wgOhzSR" role="1NKo2g" />
      </node>
      <node concept="1NKo23" id="4vv0wgOhyKq" role="1NBCxP">
        <property role="TrG5h" value="5" />
        <node concept="1NKo2b" id="4vv0wgOhyKr" role="1NKo2m">
          <ref role="1NKo2k" node="4vv0wgOgxAg" resolve="B" />
        </node>
        <node concept="1NKo28" id="4vv0wgOhyKs" role="1NKo2g">
          <ref role="1NKo29" node="4vv0wgOgxAv" resolve="1" />
        </node>
        <node concept="1NBCxR" id="4vv0wgOhyKt" role="lGtFl">
          <property role="3V$3am" value="rightHandSide" />
          <property role="3V$3ak" value="89a8aaa6-0c50-49f2-a5c2-b956fa8e5588/5178860313576899207/5178860313576899220" />
        </node>
      </node>
      <node concept="1NKo23" id="4vv0wgOhzVM" role="1NBCxP">
        <node concept="1NKo2b" id="4vv0wgOhzVN" role="1NKo2m" />
        <node concept="1NKo2l" id="4vv0wgOhzVO" role="1NKo2g" />
      </node>
      <node concept="1NKo23" id="4vv0wgOhy_m" role="1NBCxP">
        <property role="TrG5h" value="0" />
        <node concept="1NKo2b" id="4vv0wgOhy_n" role="1NKo2m">
          <ref role="1NKo2k" node="4vv0wgOhsU4" resolve="S" />
        </node>
        <node concept="1NKo2b" id="4vv0wgOhy_p" role="1NKo2g">
          <ref role="1NKo2k" node="4vv0wgOgxA9" resolve="E" />
        </node>
        <node concept="1NBCxR" id="4vv0wgOhy_o" role="lGtFl">
          <property role="3V$3am" value="rightHandSide" />
          <property role="3V$3ak" value="89a8aaa6-0c50-49f2-a5c2-b956fa8e5588/5178860313576899207/5178860313576899220" />
        </node>
        <node concept="1NKo28" id="4vv0wgOhy_q" role="1NKo2g">
          <ref role="1NKo29" node="4vv0wgOhsT_" resolve="$" />
        </node>
      </node>
      <node concept="1NKo23" id="4vv0wgOhyAS" role="1NBCxP">
        <property role="TrG5h" value="1" />
        <node concept="1NKo2b" id="4vv0wgOhyAT" role="1NKo2m">
          <ref role="1NKo2k" node="4vv0wgOgxA9" resolve="E" />
        </node>
        <node concept="1NKo2b" id="4vv0wgOhyAV" role="1NKo2g">
          <ref role="1NKo2k" node="4vv0wgOgxA9" resolve="E" />
        </node>
        <node concept="1NBCxR" id="4vv0wgOhyAU" role="lGtFl">
          <property role="3V$3am" value="rightHandSide" />
          <property role="3V$3ak" value="89a8aaa6-0c50-49f2-a5c2-b956fa8e5588/5178860313576899207/5178860313576899220" />
        </node>
        <node concept="1NKo28" id="4vv0wgOhyAW" role="1NKo2g">
          <ref role="1NKo29" node="4vv0wgOgxAo" resolve="*" />
        </node>
        <node concept="1NKo2b" id="4vv0wgOhyAX" role="1NKo2g">
          <ref role="1NKo2k" node="4vv0wgOgxAg" resolve="B" />
        </node>
      </node>
      <node concept="1NKo23" id="4vv0wgOhyDN" role="1NBCxP">
        <property role="TrG5h" value="2" />
        <node concept="1NKo2b" id="4vv0wgOhyDO" role="1NKo2m">
          <ref role="1NKo2k" node="4vv0wgOgxA9" resolve="E" />
        </node>
        <node concept="1NKo2b" id="4vv0wgOhyDP" role="1NKo2g">
          <ref role="1NKo2k" node="4vv0wgOgxA9" resolve="E" />
        </node>
        <node concept="1NBCxR" id="4vv0wgOhyDS" role="lGtFl">
          <property role="3V$3am" value="rightHandSide" />
          <property role="3V$3ak" value="89a8aaa6-0c50-49f2-a5c2-b956fa8e5588/5178860313576899207/5178860313576899220" />
        </node>
        <node concept="1NKo28" id="4vv0wgOhyDQ" role="1NKo2g">
          <ref role="1NKo29" node="4vv0wgOgxAm" resolve="+" />
        </node>
        <node concept="1NKo2b" id="4vv0wgOhyDR" role="1NKo2g">
          <ref role="1NKo2k" node="4vv0wgOgxAg" resolve="B" />
        </node>
      </node>
      <node concept="1NKo23" id="4vv0wgOh$0l" role="1NBCxP">
        <node concept="1NKo2b" id="4vv0wgOh$0m" role="1NKo2m" />
        <node concept="1NKo2l" id="4vv0wgOh$0n" role="1NKo2g" />
      </node>
      <node concept="1NKo23" id="4vv0wgOhyHG" role="1NBCxP">
        <property role="TrG5h" value="3" />
        <node concept="1NKo2b" id="4vv0wgOhyHH" role="1NKo2m">
          <ref role="1NKo2k" node="4vv0wgOgxA9" resolve="E" />
        </node>
        <node concept="1NKo2b" id="4vv0wgOhyHI" role="1NKo2g">
          <ref role="1NKo2k" node="4vv0wgOgxAg" resolve="B" />
        </node>
        <node concept="1NBCxR" id="4vv0wgOhyHJ" role="lGtFl">
          <property role="3V$3am" value="rightHandSide" />
          <property role="3V$3ak" value="89a8aaa6-0c50-49f2-a5c2-b956fa8e5588/5178860313576899207/5178860313576899220" />
        </node>
      </node>
      <node concept="1NKo23" id="4vv0wgOh$87" role="1NBCxP">
        <node concept="1NKo2b" id="4vv0wgOh$88" role="1NKo2m" />
        <node concept="1NKo2l" id="4vv0wgOh$89" role="1NKo2g" />
      </node>
      <node concept="1NKo23" id="4vv0wgOhyBF" role="1NBCxP">
        <property role="TrG5h" value="1" />
        <node concept="1NKo2b" id="4vv0wgOhyBG" role="1NKo2m">
          <ref role="1NKo2k" node="4vv0wgOgxA9" resolve="E" />
        </node>
        <node concept="1NKo2b" id="4vv0wgOhyBI" role="1NKo2g">
          <ref role="1NKo2k" node="4vv0wgOgxA9" resolve="E" />
        </node>
        <node concept="1NKo28" id="4vv0wgOhyBJ" role="1NKo2g">
          <ref role="1NKo29" node="4vv0wgOgxAo" resolve="*" />
        </node>
        <node concept="1NBCxR" id="4vv0wgOhyBH" role="lGtFl">
          <property role="3V$3am" value="rightHandSide" />
          <property role="3V$3ak" value="89a8aaa6-0c50-49f2-a5c2-b956fa8e5588/5178860313576899207/5178860313576899220" />
        </node>
        <node concept="1NKo2b" id="4vv0wgOhyBK" role="1NKo2g">
          <ref role="1NKo2k" node="4vv0wgOgxAg" resolve="B" />
        </node>
      </node>
      <node concept="1NKo23" id="4vv0wgOh$db" role="1NBCxP">
        <property role="TrG5h" value="4" />
        <node concept="1NKo2b" id="4vv0wgOh$dc" role="1NKo2m">
          <ref role="1NKo2k" node="4vv0wgOgxAg" resolve="B" />
        </node>
        <node concept="1NBCxR" id="4vv0wgOh$dd" role="lGtFl">
          <property role="3V$3am" value="rightHandSide" />
          <property role="3V$3ak" value="89a8aaa6-0c50-49f2-a5c2-b956fa8e5588/5178860313576899207/5178860313576899220" />
        </node>
        <node concept="1NKo28" id="4vv0wgOh$de" role="1NKo2g">
          <ref role="1NKo29" node="4vv0wgOgxAr" resolve="0" />
        </node>
      </node>
      <node concept="1NKo23" id="4vv0wgOh$df" role="1NBCxP">
        <property role="TrG5h" value="5" />
        <node concept="1NKo2b" id="4vv0wgOh$dg" role="1NKo2m">
          <ref role="1NKo2k" node="4vv0wgOgxAg" resolve="B" />
        </node>
        <node concept="1NBCxR" id="4vv0wgOh$dh" role="lGtFl">
          <property role="3V$3am" value="rightHandSide" />
          <property role="3V$3ak" value="89a8aaa6-0c50-49f2-a5c2-b956fa8e5588/5178860313576899207/5178860313576899220" />
        </node>
        <node concept="1NKo28" id="4vv0wgOh$di" role="1NKo2g">
          <ref role="1NKo29" node="4vv0wgOgxAv" resolve="1" />
        </node>
      </node>
      <node concept="1NKo23" id="4vv0wgOh$9K" role="1NBCxP">
        <node concept="1NKo2b" id="4vv0wgOh$9L" role="1NKo2m" />
        <node concept="1NKo2l" id="4vv0wgOh$9M" role="1NKo2g" />
      </node>
      <node concept="1NKo23" id="4vv0wgOhyES" role="1NBCxP">
        <property role="TrG5h" value="2" />
        <node concept="1NKo2b" id="4vv0wgOhyET" role="1NKo2m">
          <ref role="1NKo2k" node="4vv0wgOgxA9" resolve="E" />
        </node>
        <node concept="1NKo2b" id="4vv0wgOhyEU" role="1NKo2g">
          <ref role="1NKo2k" node="4vv0wgOgxA9" resolve="E" />
        </node>
        <node concept="1NKo28" id="4vv0wgOhyEV" role="1NKo2g">
          <ref role="1NKo29" node="4vv0wgOgxAm" resolve="+" />
        </node>
        <node concept="1NBCxR" id="4vv0wgOhyEX" role="lGtFl">
          <property role="3V$3am" value="rightHandSide" />
          <property role="3V$3ak" value="89a8aaa6-0c50-49f2-a5c2-b956fa8e5588/5178860313576899207/5178860313576899220" />
        </node>
        <node concept="1NKo2b" id="4vv0wgOhyEW" role="1NKo2g">
          <ref role="1NKo2k" node="4vv0wgOgxAg" resolve="B" />
        </node>
      </node>
      <node concept="1NKo23" id="4vv0wgOh$me" role="1NBCxP">
        <property role="TrG5h" value="4" />
        <node concept="1NKo2b" id="4vv0wgOh$mf" role="1NKo2m">
          <ref role="1NKo2k" node="4vv0wgOgxAg" resolve="B" />
        </node>
        <node concept="1NBCxR" id="4vv0wgOh$mg" role="lGtFl">
          <property role="3V$3am" value="rightHandSide" />
          <property role="3V$3ak" value="89a8aaa6-0c50-49f2-a5c2-b956fa8e5588/5178860313576899207/5178860313576899220" />
        </node>
        <node concept="1NKo28" id="4vv0wgOh$mh" role="1NKo2g">
          <ref role="1NKo29" node="4vv0wgOgxAr" resolve="0" />
        </node>
      </node>
      <node concept="1NKo23" id="4vv0wgOh$mi" role="1NBCxP">
        <property role="TrG5h" value="5" />
        <node concept="1NKo2b" id="4vv0wgOh$mj" role="1NKo2m">
          <ref role="1NKo2k" node="4vv0wgOgxAg" resolve="B" />
        </node>
        <node concept="1NBCxR" id="4vv0wgOh$mk" role="lGtFl">
          <property role="3V$3am" value="rightHandSide" />
          <property role="3V$3ak" value="89a8aaa6-0c50-49f2-a5c2-b956fa8e5588/5178860313576899207/5178860313576899220" />
        </node>
        <node concept="1NKo28" id="4vv0wgOh$ml" role="1NKo2g">
          <ref role="1NKo29" node="4vv0wgOgxAv" resolve="1" />
        </node>
      </node>
      <node concept="1NKo23" id="4vv0wgOh$of" role="1NBCxP">
        <node concept="1NKo2b" id="4vv0wgOh$og" role="1NKo2m" />
        <node concept="1NKo2l" id="4vv0wgOh$oh" role="1NKo2g" />
      </node>
      <node concept="1NKo23" id="4vv0wgOhyCK" role="1NBCxP">
        <property role="TrG5h" value="1" />
        <node concept="1NKo2b" id="4vv0wgOhyCL" role="1NKo2m">
          <ref role="1NKo2k" node="4vv0wgOgxA9" resolve="E" />
        </node>
        <node concept="1NKo2b" id="4vv0wgOhyCM" role="1NKo2g">
          <ref role="1NKo2k" node="4vv0wgOgxA9" resolve="E" />
        </node>
        <node concept="1NKo28" id="4vv0wgOhyCN" role="1NKo2g">
          <ref role="1NKo29" node="4vv0wgOgxAo" resolve="*" />
        </node>
        <node concept="1NKo2b" id="4vv0wgOhyCP" role="1NKo2g">
          <ref role="1NKo2k" node="4vv0wgOgxAg" resolve="B" />
        </node>
        <node concept="1NBCxR" id="4vv0wgOhyCO" role="lGtFl">
          <property role="3V$3am" value="rightHandSide" />
          <property role="3V$3ak" value="89a8aaa6-0c50-49f2-a5c2-b956fa8e5588/5178860313576899207/5178860313576899220" />
        </node>
      </node>
      <node concept="1NKo23" id="4vv0wgOh$qe" role="1NBCxP">
        <node concept="1NKo2b" id="4vv0wgOh$qf" role="1NKo2m" />
        <node concept="1NKo2l" id="4vv0wgOh$qg" role="1NKo2g" />
      </node>
      <node concept="1NKo23" id="4vv0wgOhyG3" role="1NBCxP">
        <property role="TrG5h" value="2" />
        <node concept="1NKo2b" id="4vv0wgOhyG4" role="1NKo2m">
          <ref role="1NKo2k" node="4vv0wgOgxA9" resolve="E" />
        </node>
        <node concept="1NKo2b" id="4vv0wgOhyG5" role="1NKo2g">
          <ref role="1NKo2k" node="4vv0wgOgxA9" resolve="E" />
        </node>
        <node concept="1NKo28" id="4vv0wgOhyG6" role="1NKo2g">
          <ref role="1NKo29" node="4vv0wgOgxAm" resolve="+" />
        </node>
        <node concept="1NKo2b" id="4vv0wgOhyG7" role="1NKo2g">
          <ref role="1NKo2k" node="4vv0wgOgxAg" resolve="B" />
        </node>
        <node concept="1NBCxR" id="4vv0wgOhyG8" role="lGtFl">
          <property role="3V$3am" value="rightHandSide" />
          <property role="3V$3ak" value="89a8aaa6-0c50-49f2-a5c2-b956fa8e5588/5178860313576899207/5178860313576899220" />
        </node>
      </node>
    </node>
  </node>
  <node concept="1NKo22" id="6bof7Fuwdno">
    <property role="TrG5h" value="Grammar3" />
    <node concept="1NKo23" id="6bof7Fuwdp3" role="1NKo4T">
      <property role="TrG5h" value="plus" />
      <node concept="1NKo2b" id="6bof7Fuwdp9" role="1NKo2m">
        <ref role="1NKo2k" node="6bof7FuwdnH" resolve="ExprSum" />
      </node>
      <node concept="1NKo2b" id="6bof7FuwdqL" role="1NKo2g">
        <ref role="1NKo2k" node="6bof7FuwdnH" resolve="ExprSum" />
      </node>
      <node concept="1NKo28" id="6bof7FuwdrX" role="1NKo2g">
        <ref role="1NKo29" node="6bof7Fuwdnp" resolve="+" />
      </node>
      <node concept="1NKo2b" id="6bof7Fuwds5" role="1NKo2g">
        <ref role="1NKo2k" node="6bof7FuwdnJ" resolve="ExprProd" />
      </node>
    </node>
    <node concept="1NKo23" id="6bof7FuwdrD" role="1NKo4T">
      <property role="TrG5h" value="skipPlus" />
      <node concept="1NKo2b" id="6bof7Fuwdso" role="1NKo2m">
        <ref role="1NKo2k" node="6bof7FuwdnH" resolve="ExprSum" />
      </node>
      <node concept="1NKo2b" id="6bof7Fuwdsr" role="1NKo2g">
        <ref role="1NKo2k" node="6bof7FuwdnJ" resolve="ExprProd" />
      </node>
    </node>
    <node concept="1NKo23" id="6bof7Fuwdsa" role="1NKo4T">
      <property role="TrG5h" value="prod" />
      <node concept="1NKo2b" id="6bof7FuwdsV" role="1NKo2m">
        <ref role="1NKo2k" node="6bof7FuwdnJ" resolve="ExprProd" />
      </node>
      <node concept="1NKo2b" id="6bof7FuwdsY" role="1NKo2g">
        <ref role="1NKo2k" node="6bof7FuwdnJ" resolve="ExprProd" />
      </node>
      <node concept="1NKo28" id="6bof7Fuwdt4" role="1NKo2g">
        <ref role="1NKo29" node="6bof7Fuwdnr" resolve="*" />
      </node>
      <node concept="1NKo2b" id="6bof7Fuwdtc" role="1NKo2g">
        <ref role="1NKo2k" node="6bof7FuwdnM" resolve="ExprAtom" />
      </node>
    </node>
    <node concept="1NKo23" id="6bof7FuwdsE" role="1NKo4T">
      <property role="TrG5h" value="skipProd" />
      <node concept="1NKo2b" id="6bof7FuwdtJ" role="1NKo2m">
        <ref role="1NKo2k" node="6bof7FuwdnJ" resolve="ExprProd" />
      </node>
      <node concept="1NKo2b" id="6bof7FuwdtM" role="1NKo2g">
        <ref role="1NKo2k" node="6bof7FuwdnM" resolve="ExprAtom" />
      </node>
    </node>
    <node concept="1NKo23" id="6bof7Fuwdtp" role="1NKo4T">
      <property role="TrG5h" value="paren" />
      <node concept="1NKo2b" id="6bof7Fuwdue" role="1NKo2m">
        <ref role="1NKo2k" node="6bof7FuwdnM" resolve="ExprAtom" />
      </node>
      <node concept="1NKo28" id="6bof7Fuwduh" role="1NKo2g">
        <ref role="1NKo29" node="6bof7Fuwdnu" resolve="(" />
      </node>
      <node concept="1NKo2b" id="6bof7Fuwdun" role="1NKo2g">
        <ref role="1NKo2k" node="6bof7FuwdnH" resolve="ExprSum" />
      </node>
      <node concept="1NKo28" id="6bof7Fuwduv" role="1NKo2g">
        <ref role="1NKo29" node="6bof7Fuwdny" resolve=")" />
      </node>
    </node>
    <node concept="1NKo23" id="6bof7FuwdtP" role="1NKo4T">
      <property role="TrG5h" value="literal" />
      <node concept="1NKo2b" id="6bof7Fuwdu$" role="1NKo2m">
        <ref role="1NKo2k" node="6bof7FuwdnM" resolve="ExprAtom" />
      </node>
      <node concept="1NKo28" id="6bof7FuwduB" role="1NKo2g">
        <ref role="1NKo29" node="6bof7FuwdnB" resolve="constant" />
      </node>
    </node>
    <node concept="1NKo2c" id="6bof7Fuwdnp" role="1NKo3p">
      <property role="TrG5h" value="+" />
    </node>
    <node concept="1NKo2c" id="6bof7Fuwdnr" role="1NKo3p">
      <property role="TrG5h" value="*" />
    </node>
    <node concept="1NKo2c" id="6bof7Fuwdnu" role="1NKo3p">
      <property role="TrG5h" value="(" />
    </node>
    <node concept="1NKo2c" id="6bof7Fuwdny" role="1NKo3p">
      <property role="TrG5h" value=")" />
    </node>
    <node concept="1NKo2c" id="6bof7FuwdnB" role="1NKo3p">
      <property role="TrG5h" value="constant" />
    </node>
    <node concept="1NKo2d" id="6bof7FuwdnH" role="1NKo3r">
      <property role="TrG5h" value="ExprSum" />
    </node>
    <node concept="1NKo2d" id="6bof7FuwdnJ" role="1NKo3r">
      <property role="TrG5h" value="ExprProd" />
    </node>
    <node concept="1NKo2d" id="6bof7FuwdnM" role="1NKo3r">
      <property role="TrG5h" value="ExprAtom" />
    </node>
  </node>
  <node concept="1NZz$r" id="6bof7Fuwsyd" />
</model>

